{
    "api_version": 2,
    "config_dir": "novum.svb",
    "namespace": "ApiNovumSvb",
    "site": {
        "dev": {
            "protocol": "http",
            "domain": "api.svb.innovatieapp.nl"
        },
        "test": {
            "protocol": "https",
            "domain": "api.test.svb.demo.novum.nu"
        },
        "prod": {
            "protocol": "https",
            "domain": "api.svb.demo.novum.nu"
        }
    },
    "server_admin": "anton@novum.nu"
}